industry,industry_name,2009,2010,2011,2012,2013,2014,2015,rd_average
10 & 11 & 12,"Food products, beverages and tobacco",167.3,158.9,136.3,126.9,128.3,126.8,115.5,137.1428571
13,Textiles,39.1,36,35,25.7,22.1,25.2,23.3,29.48571429
14,Wearing apparel ,25,20.5,28.7,19.1,9,8.9,7.2,16.91428571
15,"Leather and related products, footwear ",3.3,3.3,3.2,3.2,2.5,2.7,2.4,2.942857143
16,"Wood and wood products, except furniture",85.7,71.2,71,70.7,61.3,50.4,67.4,68.24285714
17,Paper and paper products ,65.8,123.7,121.8,105.3,113.6,154.4,136.3,117.2714286
18,Printing and reproduction of recorded media ,59.9,49.1,41.9,38.6,38.8,38.2,40.1,43.8
19,Coke and refined petroleum products ,248.9,272.7,74.2,49.8,53.9,3.3,112.6,116.4857143
20,Chemicals and chemical products ,245.5,288.3,258.1,180,202.6,176.4,307.1,236.8571429
21," Pharmaceuticals, medicinal, chemical and botanical products",558.5,547,417.8,364,340.7,375.5,400.2,429.1
22,Rubber and plastic products ,144,124.5,137.9,144.8,127.9,127.6,111.5,131.1714286
23,Other non-metallic mineral products ,72.4,64.7,65.3,53,55.6,44.7,37.7,56.2
24,Basic metals ,221.4,155.6,172.6,167.1,194.4,279.6,202.9,199.0857143
25,"Fabricated metal products, except machinery and equipment ",309.6,258,237.1,217.7,219.8,249.7,236.2,246.8714286
26,"Computer, electronic and optical products ",2120.7,1739.4,1980.8,2012.7,1820.3,838.8,828.4,1620.157143
27,Electrical equipment ,135.7,130.2,118.6,117.3,138.9,161.2,151.6,136.2142857
28,Machinery and equipment n.e.c. ,526.8,436.5,516.2,472.4,473,615.5,431.5,495.9857143
29," Motor vehicles, trailers and semi-trailers",208.1,209.6,162.1,149.4,143,112.2,124.2,158.3714286
30,Other transport equipment,1051.2,1141.6,1212.2,1283.9,1407.7,1496.3,1581.4,1310.614286
31,Furniture ,39.9,34.4,29,23.3,18,19.5,21.7,26.54285714
32,Other manufacturing ,134.8,140,125.8,131.8,121.7,72.3,87.4,116.2571429
33,Repair and installation of machinery and equipment ,33.3,27,27.4,25.7,25.3,50.4,31.3,31.48571429
10,"Food products, beverages and tobacco",167.3,158.9,136.3,126.9,128.3,126.8,115.5,137.1428571
11,"Food products, beverages and tobacco",39.1,36,35,25.7,22.1,25.2,23.3,29.48571429
12,"Food products, beverages and tobacco",25,20.5,28.7,19.1,9,8.9,7.2,16.91428571
