industry,value_added,industry_name,rd_average,rd_average_full_amnt,intensity
19,74761015714,Coke and refined petroleum products ,116.4857143,116485714.3,0.15581077
16,34442057857,"Wood and wood products, except furniture",68.24285714,68242857.14,0.198138153
29,77203287714," Motor vehicles, trailers and semi-trailers",158.3714286,158371428.6,0.205135601
23,23616683714,Other non-metallic mineral products ,56.2,56200000,0.237967365
17,49074156142,Paper and paper products ,117.2714286,117271428.6,0.238967794
18,18178814571,Printing and reproduction of recorded media ,43.8,43800000,0.240939803
31,10382186142,Furniture ,26.54285714,26542857.14,0.255657689
20,62382121857,Chemicals and chemical products ,236.8571429,236857142.9,0.379687538
25,64650009428,"Fabricated metal products, except machinery and equipment ",246.8714286,246871428.6,0.381858303
24,47117766714,Basic metals ,199.0857143,199085714.3,0.422527909
22,28605106428,Rubber and plastic products ,131.1714286,131171428.6,0.458559485
13,6242054571,Textiles,29.48571429,29485714.29,0.47237194
15,455157285,"Leather and related products, footwear ",2.942857143,2942857.143,0.646558287
14,2344471000,Wearing apparel ,16.91428571,16914285.71,0.721454252
27,11997293285,Electrical equipment ,136.2142857,136214285.7,1.135375142
32,6792835000,Other manufacturing ,116.2571429,116257142.9,1.711467199
28,23516703142,Machinery and equipment n.e.c. ,495.9857143,495985714.3,2.109078434
21,8714015571," Pharmaceuticals, medicinal, chemical and botanical products",429.1,429100000,4.924251013
30,23987348714,Other transport equipment,1310.614286,1310614286,5.463773015
26,9273588428,"Computer, electronic and optical products ",1620.157143,1620157143,17.47066042
